<svg xmlns="http://www.w3.org/2000/svg" width="9.686" height="5.871" viewBox="0 0 9.686 5.871">
  <path id="Icon_ionic-ios-arrow-down" data-name="Icon ionic-ios-arrow-down" d="M10.5,14.689l3.259-3.262a.613.613,0,0,1,.87,0,.621.621,0,0,1,0,.873L10.935,16c-.234.234-.849.018-.849.018L6.367,12.3a.616.616,0,1,1,.87-.873Z" transform="translate(-5.687 -10.746)" fill="#459d68" stroke="#459d68" stroke-width="1"/>
</svg>
