<svg xmlns="http://www.w3.org/2000/svg" width="20" height="15.714" viewBox="0 0 20 15.714">
  <path id="mail" d="M19.75,5.625h-15a2.5,2.5,0,0,0-2.5,2.5V18.839a2.5,2.5,0,0,0,2.5,2.5h15a2.5,2.5,0,0,0,2.5-2.5V8.125a2.5,2.5,0,0,0-2.5-2.5ZM19.117,9.76l-6.428,5a.714.714,0,0,1-.877,0l-6.428-5A.714.714,0,1,1,6.26,8.632l5.99,4.659,5.99-4.659a.714.714,0,1,1,.877,1.128Z" transform="translate(-2.25 -5.625)" fill="#656565"/>
</svg>
