<svg xmlns="http://www.w3.org/2000/svg" width="20" height="20" viewBox="0 0 20 20">
  <path id="phone" d="M5.638,11.167l-.027-.077A19.8,19.8,0,0,1,4.5,5.611,1.114,1.114,0,0,1,5.611,4.5H8.944a2.222,2.222,0,0,1,2.222,2.222V8.944a2.222,2.222,0,0,1-2.222,2.222h-.93a17.838,17.838,0,0,0,9.819,9.819v-.93a2.222,2.222,0,0,1,2.222-2.222h2.222A2.222,2.222,0,0,1,24.5,20.056v3.333A1.3,1.3,0,0,1,23.389,24.5a17.134,17.134,0,0,1-5.556-1.111,20.169,20.169,0,0,1-12.2-12.222Z" transform="translate(-4.5 -4.5)" fill="#656565" fill-rule="evenodd"/>
</svg>
